Data validation
…
datos_filtrados <- datos %>%
  filter(upch_ei_presente == 1)

conteo <- datos %>%
  group_by(comunidad_nombre) %>%
  summarise(
    total_censados = n(),  # Total de censados
    total_encuestados = sum(!is.na(upch_ei_mosq)),  # Total de encuestados
    total_hogares = n_distinct(id)  # Total de hogares
  ) %>%
  pivot_longer(cols = -comunidad_nombre, names_to = "categoria", values_to = "total")

conteo

## # A tibble: 24 x 3
##    comunidad_nombre categoria         total
##    <chr>            <chr>             <int>
##  1 12 de Abril      total_censados      305
##  2 12 de Abril      total_encuestados   135
##  3 12 de Abril      total_hogares        62
##  4 23 de Febrero    total_censados       19
##  5 23 de Febrero    total_encuestados    11
##  6 23 de Febrero    total_hogares         7
##  7 Cahuide          total_censados      564
##  8 Cahuide          total_encuestados   294
##  9 Cahuide          total_hogares       110
## 10 El Paujil        total_censados      147
## # i 14 more rows
…
# 2. Conteo de DNIs válidos e inválidos por comunidad
conteo_dni_comunidad <- datos %>%
  group_by(comunidad_nombre, dni_valido) %>%
  summarise(total = n(), .groups = "drop")

# 3. Mostrar el resultado
print(conteo_dni_comunidad)

## # A tibble: 24 x 3
##    comunidad_nombre dni_valido total
##    <chr>            <chr>      <int>
##  1 12 de Abril      Inválido      32
##  2 12 de Abril      Sin DNI       62
##  3 12 de Abril      Válido       211
##  4 23 de Febrero    Inválido       3
##  5 23 de Febrero    Sin DNI        7
##  6 23 de Febrero    Válido         9
##  7 Cahuide          Inválido      88
##  8 Cahuide          Sin DNI      111
##  9 Cahuide          Válido       365
## 10 El Paujil        Inválido      22
## # i 14 more rows
…
